BST260_pset2
…
Linear models

We are going fit a linear model to account for the trend in death rates to obtain an more appropriate expected death rate for each agegroup and sex. Because we are fitting a linear model, it is preferable to have normally distributed data. We want the number of deaths per week to be larger than 10 for each group. Compute the average number of deaths per week by agegroup and sex for 2016. Based on these data, what agegroups do you recommend we combine?

Ans: Combine “0-4”, “5-9”, “10-14”, “15-19”, “20-24”, “25-29”, “30-34”, “35-39”, “40-44” to one group, and “45-59”, “50-54” to “45-54” to one group.

weekly_counts |> 
  filter(year == 2016) |> 
  group_by(agegroup, sex) |> 
  summarise(outcome = mean(outcome) , .groups = "drop")

# A tibble: 36 × 3
   agegroup sex    outcome
   <fct>    <chr>    <dbl>
 1 0-4      female    2.38
 2 0-4      male      2.54
 3 5-9      female    0.3 
 4 5-9      male      0.18
 5 10-14    female    0.12
 6 10-14    male      0.24
 7 15-19    female    0.3 
 8 15-19    male      1.6 
 9 20-24    female    0.56
10 20-24    male      4.52
# ℹ 26 more rows
…
  # Bind the predictions to the 2017 data
  res <- newdata_for_pred |> 
    mutate(fit = pred$fit, fit.se = sd(mod$residuals))
  
  # Return the result
  res
}

Use the group_modify function to fit this model to each sex and agegroup. Save the results in res.

res <- dat |> group_by(agegroup, sex) |>  group_modify(lmpred)
res

# A tibble: 918 × 11
# Groups:   agegroup, sex [18]
   agegroup sex    date        year mmwr_week outcome    pop     t       rate
   <fct>    <chr>  <date>     <dbl>     <dbl>   <dbl>  <dbl> <dbl>      <dbl>
 1 0-44     female 2017-01-04  2017         1      13 907977   887 0.0000143 
 2 0-44     female 2017-01-11  2017         2       7 907977   888 0.00000771
 3 0-44     female 2017-01-18  2017         3      10 907977   889 0.0000110 
 4 0-44     female 2017-01-25  2017         4      12 907977   890 0.0000132 
 5 0-44     female 2017-02-01  2017         5      10 907977   891 0.0000110 
 6 0-44     female 2017-02-08  2017         6      17 907977   892 0.0000187 
 7 0-44     female 2017-02-15  2017         7       6 907977   893 0.00000661
 8 0-44     female 2017-02-22  2017         8       6 907977   894 0.00000661
 9 0-44     female 2017-03-01  2017         9       7 907977   895 0.00000771
10 0-44     female 2017-03-08  2017        10      16 907977   896 0.0000176 
# ℹ 908 more rows
# ℹ 2 more variables: fit <dbl>, fit.se <dbl>
…
