BST260_pset1
…
For each series used to make the trend plot for the three series, make a boxplot showing the maximum percentage reached by every state stratified by region. Let the range of the y axis adapt to the range of each series.

tmp|>filter(series=="bivalent" & percent>0)

# A tibble: 1,924 × 7
   state region population end_date   series     percent date_formatted
   <chr> <fct>       <dbl> <date>     <fct>        <dbl> <chr>         
 1 AK    10         733391 2022-09-03 bivalent 0.0000191 Sep 2022      
 2 AK    10         733391 2022-09-10 bivalent 0.00302   Sep 2022      
 3 AK    10         733391 2022-09-17 bivalent 0.0121    Sep 2022      
 4 AK    10         733391 2022-09-24 bivalent 0.0230    Sep 2022      
 5 AK    10         733391 2022-10-01 bivalent 0.0343    Oct 2022      
 6 AK    10         733391 2022-10-08 bivalent 0.0459    Oct 2022      
 7 AK    10         733391 2022-10-15 bivalent 0.0574    Oct 2022      
 8 AK    10         733391 2022-10-22 bivalent 0.0685    Oct 2022      
 9 AK    10         733391 2022-10-29 bivalent 0.0789    Oct 2022      
10 AK    10         733391 2022-11-05 bivalent 0.0869    Nov 2022      
# ℹ 1,914 more rows

tmp|>filter(series=="series_complete" & percent>0)

# A tibble: 6,552 × 7
   state region population end_date   series            percent date_formatted
   <chr> <fct>       <dbl> <date>     <fct>               <dbl> <chr>         
 1 AK    10         733391 2020-12-19 series_complete 0.0000627 Dec 2020      
 2 AK    10         733391 2020-12-26 series_complete 0.0000941 Dec 2020      
 3 AK    10         733391 2021-01-02 series_complete 0.000155  Jan 2021      
 4 AK    10         733391 2021-01-09 series_complete 0.0114    Jan 2021      
 5 AK    10         733391 2021-01-16 series_complete 0.0185    Jan 2021      
 6 AK    10         733391 2021-01-23 series_complete 0.0274    Jan 2021      
 7 AK    10         733391 2021-01-30 series_complete 0.0422    Jan 2021      
 8 AK    10         733391 2021-02-06 series_complete 0.0745    Feb 2021      
 9 AK    10         733391 2021-02-13 series_complete 0.113     Feb 2021      
10 AK    10         733391 2021-02-20 series_complete 0.141     Feb 2021      
# ℹ 6,542 more rows

tmp|>filter(series=="booster" & percent>0)

# A tibble: 4,847 × 7
   state region population end_date   series   percent date_formatted
   <chr> <fct>       <dbl> <date>     <fct>      <dbl> <chr>         
 1 AK    10         733391 2021-08-14 booster 0.000106 Aug 2021      
 2 AK    10         733391 2021-08-21 booster 0.00188  Aug 2021      
 3 AK    10         733391 2021-08-28 booster 0.00461  Aug 2021      
 4 AK    10         733391 2021-09-04 booster 0.00728  Sep 2021      
 5 AK    10         733391 2021-09-11 booster 0.0101   Sep 2021      
 6 AK    10         733391 2021-09-18 booster 0.0127   Sep 2021      
 7 AK    10         733391 2021-09-25 booster 0.0178   Sep 2021      
 8 AK    10         733391 2021-10-02 booster 0.0345   Oct 2021      
 9 AK    10         733391 2021-10-09 booster 0.0479   Oct 2021      
10 AK    10         733391 2021-10-16 booster 0.0584   Oct 2021      
# ℹ 4,837 more rows
…
